[flashEffect:flashWhite1]□▽★※◎◆♯ ¡¡Puff!!
???: [chara:101100:effect_shake]¡Ah!
???: N-necesito salir de aquí...
Chugga Chugga▲◎☆◆¿¡!?
???: ¡¿Huh?!
Iroha: ¡¿Estás bien?!
???: Oh, um...S-si...
Iroha: ¡Gracias a dios!@¡Salgamos de aquí!
???: ¡Si!
